{
  "compilerOptions": {
    "jsx": "react-jsx",
    "jsxImportSource": "preact"
  },
  "imports": {
    "CssModule": "./declaration.d.ts",
    "preact": "https://esm.sh/preact@10.17.1",
    "preact/hooks": "https://esm.sh/preact@10.17.1/hooks",
    "preact/jsx-runtime": "https://esm.sh/preact@10.17.1/jsx-runtime",
    "stew/": "https://deno.land/x/stew@0.4.0/stew-library/"
  },
  "tasks": {
    "buildStew": "rm -rf ./build && deno run -A https://raw.githubusercontent.com/stews-io/toolkit/0.4.0/stew-command/main.ts build ./source/stew.config.ts",
    "serveStew": "deno run -A https://raw.githubusercontent.com/stews-io/toolkit/0.4.0/development-scripts/serveStewBuild.ts ./build",
    "buildAndServeStew": "deno task buildStew && deno task serveStew"
  },
  "fmt": {
    "useTabs": false,
    "singleQuote": true,
    "semiColons": true,
    "indentWidth": 2
  },
  "lint": {
    "rules": {
      "exclude": ["no-empty-interface"]
    }
  }
}
